{
    "type": "object",
    "title": "Table configuration",
    "required": [
        "outputTable",
        "table",
        "primaryKey",
        "incremental",
        "columns"
    ],
    "properties": {
        "table": {
            "type": "object",
            "title": "Table",
            "properties": {
                "schema": {
                    "type": "string",
                    "title": "schema",
                    "propertyOrder": 200
                },
                "tableName": {
                    "type": "string",
                    "title": "Source table name",
                    "propertyOrder": 100
                }
            },
            "propertyOrder": 200
        },
        "columns": {
            "type": "array",
            "items": {
                "type": "string",
                "title": "Column"
            },
            "title": "Columns",
            "propertyOrder": 500
        },
        "primaryKey": {
            "type": "array",
            "items": {
                "type": "string",
                "title": "Column"
            },
            "title": "Primary Key",
            "propertyOrder": 400
        },
        "incremental": {
            "type": "boolean",
            "title": "Incremental",
            "propertyOrder": 300
        },
        "outputTable": {
            "type": "string",
            "title": "Output table name",
            "propertyOrder": 100
        },
        "incremental_fetching": {
            "type": "boolean",
            "title": "Incremental Fetching",
            "format": "checkbox",
            "description": "If enabled, only newly created or updated records since the last run will be fetched.",
            "propertyOrder": 300
        },
        "incrementalFetchingColumn": {
            "type": "string",
            "title": "Incremental fetching Column",
            "options": {
                "dependencies": {
                    "incremental_fetching": true
                }
            },
            "description": "Only numeric or date/time columns supported. Using an update timestamp column means that only new and updated records will be fetched, not deletes.",
            "propertyOrder": 350
        }
    }
}